"old_name","new_name","center1","cn_new"
"Aizawl_chanmari_D (Mizoram)","Aizawl_Dinthar_D (Mizoram)","aizawl_chanmari_d (mizoram)","aizawl_dinthar_d (mizoram)"
"Ajmer_DC (Rajasthan)","Ajmer_Jyotingr_D (Rajasthan)","ajmer_dc (rajasthan)","ajmer_jyotingr_d (rajasthan)"
"Alwar_Central_D_1 (Rajasthan)","Alwar_AnndVhr_D (Rajasthan)","alwar_central_d_1 (rajasthan)","alwar_anndvhr_d (rajasthan)"
"Amb_Adrshngr_D (Himachal Pradesh)","Amb_Mubarikpur_D (Himachal Pradesh)","amb_adrshngr_d (himachal pradesh)","amb_mubarikpur_d (himachal pradesh)"
"Ambabadi_DC (Rajasthan)","Jaipur_SindhuNgr_D (Rajasthan)","ambabadi_dc (rajasthan)","jaipur_sindhungr_d (rajasthan)"
"Ambala (Haryana)","Ambala_Mandli_D (Haryana)","ambala (haryana)","ambala_mandli_d (haryana)"
"Ambur_AlgpurRd_D (Tamil Nadu)","Ambur_Central_D_2 (Tamil Nadu)","ambur_algpurrd_d (tamil nadu)","ambur_central_d_2 (tamil nadu)"
"Ahmedabad_South_D_2 (Gujarat)","Ahmedabad_Maningar_D (Gujarat)","ahmedabad_south_d_2 (gujarat)","ahmedabad_maningar_d (gujarat)"
"Amdavad_East (Gujarat)","Ahmedabad_Naroda_D (Gujarat)","amdavad_east (gujarat)","ahmedabad_naroda_d (gujarat)"
"Anakapalle_Kothuru_D (Andhra Pradesh)","Anakapalle_Thumapala_D (Andhra Pradesh)","anakapalle_kothuru_d (andhra pradesh)","anakapalle_thumapala_d (andhra pradesh)"
"Anantapur_DC (Andhra Pradesh)","Anantapur_Rudrampeta_D (Andhra Pradesh)","anantapur_dc (andhra pradesh)","anantapur_rudrampeta_d (andhra pradesh)"
"Angul_Amlapara_D (Orissa)","Angul_Central_D_2 (Orissa)","angul_amlapara_d (orissa)","angul_central_d_2 (orissa)"
"Asansol_DC (West Bengal)","Asansol_Kanyapr_D (West Bengal)","asansol_dc (west bengal)","asansol_kanyapr_d (west bengal)"
"Ashokngr_Bypassrd_D (Madhya Pradesh)","AshokNagar_Chaigar_D (Madhya Pradesh)","ashokngr_bypassrd_d (madhya pradesh)","ashoknagar_chaigar_d (madhya pradesh)"
"Attingal_RjComplx_D (Kerala)","Attingal_Central_D_2 (Kerala)","attingal_rjcomplx_d (kerala)","attingal_central_d_2 (kerala)"
"Auraiya_AryaNagr_D (Uttar Pradesh)","Auraiya_Brahmngr_D (Uttar Pradesh)","auraiya_aryanagr_d (uttar pradesh)","auraiya_brahmngr_d (uttar pradesh)"
"Chennai_Mannurpet_D (Tamil Nadu)","Chennai_SIDCO_D (Tamil Nadu)","chennai_mannurpet_d (tamil nadu)","chennai_sidco_d (tamil nadu)"
"Bahadurgarh_DC (Haryana)","BAHADURGARH_NEHRUPARK_D (HARYANA)","bahadurgarh_dc (haryana)","bahadurgarh_nehrupark_d (haryana)"
"Baharampur_Chuanpur_D (West Bengal)","Berhampore_Central_D_2 (West Bengal)","baharampur_chuanpur_d (west bengal)","berhampore_central_d_2 (west bengal)"
"Balaghat_Kosmi_D (Madhya Pradesh)","Balaghat_Devtola_D (Madhya Pradesh)","balaghat_kosmi_d (madhya pradesh)","balaghat_devtola_d (madhya pradesh)"
"Balugaon_Thikiri_D (Orissa)","Balugaon_Oldasianhighwy_D (Orissa)","balugaon_thikiri_d (orissa)","balugaon_oldasianhighwy_d (orissa)"
"Bangriposi_Vailadia_D (Orissa)","Bangriposi_Central_D_2 (Orissa)","bangriposi_vailadia_d (orissa)","bangriposi_central_d_2 (orissa)"
"Bantwal_Trmltmpl_D (Karnataka)","Bantwal_Ganadapadpu_D (Karnataka)","bantwal_trmltmpl_d (karnataka)","bantwal_ganadapadpu_d (karnataka)"
"Bardhaman_Bankura_D (West Bengal)","Bardhaman_Gopalnagar_D (West Bengal)","bardhaman_bankura_d (west bengal)","bardhaman_gopalnagar_d (west bengal)"
"Barrackpore_N24PGS (West Bengal)","Barrackpore_Lalkuti_D (West Bengal)","barrackpore_n24pgs (west bengal)","barrackpore_lalkuti_d (west bengal)"
"Barshi_Kurduwdi_D (Maharashtra)","Barshi_Zaregaon_D (Maharashtra)","barshi_kurduwdi_d (maharashtra)","barshi_zaregaon_d (maharashtra)"
"Basti_GndhiNgr_D (Uttar Pradesh)","Basti_Central_D_2 (Uttar Pradesh)","basti_gndhingr_d (uttar pradesh)","basti_central_d_2 (uttar pradesh)"
"Batala_DC (Punjab)","Batala_ShastriNgr_D (Punjab)","batala_dc (punjab)","batala_shastringr_d (punjab)"
"Bengaluru_Bellandur (Karnataka)","Bangalore_BellndurNew_D (Karnataka)","bengaluru_bellandur (karnataka)","bangalore_bellndurnew_d (karnataka)"
"Bengaluru_BTM_Dc (Karnataka)","Bangalore_BTMLayout_D (Karnataka)","bengaluru_btm_dc (karnataka)","bangalore_btmlayout_d (karnataka)"
"Bengaluru_HSR_Dc (Karnataka)","Bengaluru_HSR_D (Karnataka)","bengaluru_hsr_dc (karnataka)","bengaluru_hsr_d (karnataka)"
"Bengaluru_Marathalli_Dc (Karnataka)","Bengaluru_Marathahalli_D (Karnataka)","bengaluru_marathalli_dc (karnataka)","bengaluru_marathahalli_d (karnataka)"
"Bengaluru_Sarjapur_D (Karnataka)","Bengaluru_Dommasandra_D (Karnataka)","bengaluru_sarjapur_d (karnataka)","bengaluru_dommasandra_d (karnataka)"
"Bengaluru_Vijayanagar_Dc (Karnataka)","Bengaluru_Maruthimndr_D (Karnataka)","bengaluru_vijayanagar_dc (karnataka)","bengaluru_maruthimndr_d (karnataka)"
"Bengaluru_West (Karnataka)","Bengaluru_West_D_9 (Karnataka)","bengaluru_west (karnataka)","bengaluru_west_d_9 (karnataka)"
"Betul_PatelWrd_D (Madhya Pradesh)","Betul_Badora_D (Madhya Pradesh)","betul_patelwrd_d (madhya pradesh)","betul_badora_d (madhya pradesh)"
"Bhadrak_Mathashi_D (Orissa)","Bhadrak_Central_D_2 (Orissa)","bhadrak_mathashi_d (orissa)","bhadrak_central_d_2 (orissa)"
"Bhadravati_Parkroad_D (Karnataka)","Bhadravati_Jannapara_D (Karnataka)","bhadravati_parkroad_d (karnataka)","bhadravati_jannapara_d (karnataka)"
"Bhalki_GandhiCr_D (Karnataka)","Hulsoor_Central_D_1 (Karnataka)","bhalki_gandhicr_d (karnataka)","hulsoor_central_d_1 (karnataka)"
"Bhatinda (Punjab)","Bathinda_Sivian_D (Punjab)","bhatinda (punjab)","bathinda_sivian_d (punjab)"
"Bhilwara_DC (Rajasthan)","Bhilwara_AzadNgr_D (Rajasthan)","bhilwara_dc (rajasthan)","bhilwara_azadngr_d (rajasthan)"
"Bhiwadi DC (Rajasthan)","Bhiwadi_Central_D_2 (Rajasthan)","bhiwadi dc (rajasthan)","bhiwadi_central_d_2 (rajasthan)"
"Bhubaneswar_BjbNgr_DC (Orissa)","Bhubaneshwar_PandavNgr_D (Orissa)","bhubaneswar_bjbngr_dc (orissa)","bhubaneshwar_pandavngr_d (orissa)"
"Bhusawal_Samarth_D (Maharashtra)","Bhusawal_Vthlmndr_D (Maharashtra)","bhusawal_samarth_d (maharashtra)","bhusawal_vthlmndr_d (maharashtra)"
"Bijapur_KirtiNgr_D (Karnataka)","Bijapur_Central_D_2 (Karnataka)","bijapur_kirtingr_d (karnataka)","bijapur_central_d_2 (karnataka)"
"Bilaspur_Torwa_DC (Chhattisgarh)","Bilaspur_Dylband_D (Chhattisgarh)","bilaspur_torwa_dc (chhattisgarh)","bilaspur_dylband_d (chhattisgarh)"
"BLR_Central (Karnataka)","Bangalore_Indirangr_D (Karnataka)","blr_central (karnataka)","bangalore_indirangr_d (karnataka)"
"Blr_Ganabharathi (Karnataka)","Bengaluru_West_D_10 (Karnataka)","blr_ganabharathi (karnataka)","bengaluru_west_d_10 (karnataka)"
"Botad_DC (Gujarat)","Botad_Paliyadrd_D (Gujarat)","botad_dc (gujarat)","botad_paliyadrd_d (gujarat)"
"Budaun_Sundrcol_D (Uttar Pradesh)","Budaun_Central_D_2 (Uttar Pradesh)","budaun_sundrcol_d (uttar pradesh)","budaun_central_d_2 (uttar pradesh)"
"Bundi_Devpura_D (Rajasthan)","Bundi_Central_D_1 (Rajasthan)","bundi_devpura_d (rajasthan)","bundi_central_d_1 (rajasthan)"
"Canacona_CharRsta_D (Goa)","Canacona_Delem_D (Goa)","canacona_charrsta_d (goa)","canacona_delem_d (goa)"
"ccu_birati (West Bengal)","Kolkata_North_D_5 (West Bengal)","ccu_birati (west bengal)","kolkata_north_d_5 (west bengal)"
"CCU_Central (West Bengal)","Kolkata_Central_D_4 (West Bengal)","ccu_central (west bengal)","kolkata_central_d_4 (west bengal)"
"CCU_Entally (West Bengal)","Kolkata_Elliotroad_D (WEST BENGAL)","ccu_entally (west bengal)","kolkata_elliotroad_d (west bengal)"
"Kolkata_Central_D_5 (West Bengal)","Kolkata_Kulia_D (West Bengal)","kolkata_central_d_5 (west bengal)","kolkata_kulia_d (west bengal)"
"Chamba_Central_D_2 (Himachal Pradesh)","Chamba_Sultanpur_D (Himachal Pradesh)","chamba_central_d_2 (himachal pradesh)","chamba_sultanpur_d (himachal pradesh)"
"Chandausi_Ganesh_D (Uttar Pradesh)","Chandausi_Gumtal_D (Uttar Pradesh)","chandausi_ganesh_d (uttar pradesh)","chandausi_gumtal_d (uttar pradesh)"
"Chandigarh_Mullanpr_DC (Chandigarh)","Chandigarh_Nayagaon_D (Punjab)","chandigarh_mullanpr_dc (chandigarh)","chandigarh_nayagaon_d (punjab)"
"Chennai_Vepmpttu_DC (Tamil Nadu)","Chennai_Avadi_D (Tamil Nadu)","chennai_vepmpttu_dc (tamil nadu)","chennai_avadi_d (tamil nadu)"
"Coimbatore_Ukkadam_D (Tamil Nadu)","Coimbatore_SelvpurmSouth_D (Tamil Nadu)","coimbatore_ukkadam_d (tamil nadu)","coimbatore_selvpurmsouth_d (tamil nadu)"
"Daurala_Sardhnrd_D (Uttar Pradesh)","Daurala_Central_D_2 (Uttar Pradesh)","daurala_sardhnrd_d (uttar pradesh)","daurala_central_d_2 (uttar pradesh)"
"Delhi_Bhajanpura (Delhi)","Delhi_Ghonda_D (Delhi)","delhi_bhajanpura (delhi)","delhi_ghonda_d (delhi)"
"Delhi_Govindpura (Delhi)","DELHI_JAGATPURI_D (DELHI).","delhi_govindpura (delhi)","delhi_jagatpuri_d (delhi)."
"Delhi_Mangol_DC (Delhi)","Delhi_SantNagar_D (Delhi)","delhi_mangol_dc (delhi)","delhi_santnagar_d (delhi)"
"Delhi_OkhlaPh1_DC (Delhi)","DELHI_OKHLAPH2_D (DELHI)","delhi_okhlaph1_dc (delhi)","delhi_okhlaph2_d (delhi)"
"Delhi_Shahdara (Delhi)","Delhi_Jhilmil_D (Delhi)","delhi_shahdara (delhi)","delhi_jhilmil_d (delhi)"
"Delhi_Timarpur (Delhi)","Delhi_KalyanVhr_D (Delhi)","delhi_timarpur (delhi)","delhi_kalyanvhr_d (delhi)"
"Deoghar_Barmasia_D (Jharkhand)","Deoghar_BompasTown_D (Jharkhand)","deoghar_barmasia_d (jharkhand)","deoghar_bompastown_d (jharkhand)"
"dhanbad (Jharkhand)","Dhanbad_Central_D_4 (Jharkhand)","dhanbad (jharkhand)","dhanbad_central_d_4 (jharkhand)"
"Dhrmsthala_Beltngdi_D (Karnataka)","Belthangady_Ujire_D (Karnataka)","dhrmsthala_beltngdi_d (karnataka)","belthangady_ujire_d (karnataka)"
"Dibrugarh_ThnaChrl_D (Assam)","Dibrugarh_RlwyClny_D (Assam)","dibrugarh_thnachrl_d (assam)","dibrugarh_rlwyclny_d (assam)"
"Dindigul_Central_D_1 (Tamil Nadu)","Dindigul_Palapati_D (Tamil Nadu)","dindigul_central_d_1 (tamil nadu)","dindigul_palapati_d (tamil nadu)"
"Diphu_Dharmnla_D (Assam)","Diphu_ShymColony_D (Assam)","diphu_dharmnla_d (assam)","diphu_shymcolony_d (assam)"
"Domkal_BablaBon_D (West Bengal)","Domkal_Central_D_2 (West Bengal)","domkal_bablabon_d (west bengal)","domkal_central_d_2 (west bengal)"
"Durgapur_DC (West Bengal)","Durgapur_Citycenter_D (West Bengal)","durgapur_dc (west bengal)","durgapur_citycenter_d (west bengal)"
"Edappal_PonaniRD_D (Kerala)","Edappal_Central_D_2 (Kerala)","edappal_ponanird_d (kerala)","edappal_central_d_2 (kerala)"
"Etawah_MhraChng_D (Uttar Pradesh)","Etawah_Central_D_2 (Uttar Pradesh)","etawah_mhrachng_d (uttar pradesh)","etawah_central_d_2 (uttar pradesh)"
"Forbesganj_JhumanCk_D (Bihar)","Forbesganj_Tvtower_D (Bihar)","forbesganj_jhumanck_d (bihar)","forbesganj_tvtower_d (bihar)"
"Gandhidham_DC (Gujarat)","Gandhidham_Ward10_D (Gujarat)","gandhidham_dc (gujarat)","gandhidham_ward10_d (gujarat)"
"Gaya_Bagshwri_DC (Bihar)","Gaya_Central_D_2 (Bihar)","gaya_bagshwri_dc (bihar)","gaya_central_d_2 (bihar)"
"Ghaziabad_Indraprm_DC (Uttar Pradesh)","Ghaziabad_Central_D_2 (Uttar Pradesh)","ghaziabad_indraprm_dc (uttar pradesh)","ghaziabad_central_d_2 (uttar pradesh)"
"Goa_Mapusa (Goa)","Goa_Duler_D (Goa)","goa_mapusa (goa)","goa_duler_d (goa)"
"Goalpara_BapujNgr_D (Assam)","Goalpara_Bhatipara_D (Assam)","goalpara_bapujngr_d (assam)","goalpara_bhatipara_d (assam)"
"Godda_PushPlza_D (Jharkhand)","Godda_Central_D_2 (Jharkhand)","godda_pushplza_d (jharkhand)","godda_central_d_2 (jharkhand)"
"Gonikoppal_Thomas_D (Karnataka)","Gonikoppal_Mainroad_D (Karnataka)","gonikoppal_thomas_d (karnataka)","gonikoppal_mainroad_d (karnataka)"
"Gorakhpur (Uttar Pradesh)","Gorakhpur_Central_D_3 (Uttar Pradesh)","gorakhpur (uttar pradesh)","gorakhpur_central_d_3 (uttar pradesh)"
"Gorakhpur_Taramndl_DC (Uttar Pradesh)","Gorakhpur_Bagrano_D (Uttar Pradesh)","gorakhpur_taramndl_dc (uttar pradesh)","gorakhpur_bagrano_d (uttar pradesh)"
"Guna_Raghogrh_D (Madhya Pradesh)","Guna_ModlTnwColny_D (Madhya Pradesh)","guna_raghogrh_d (madhya pradesh)","guna_modltnwcolny_d (madhya pradesh)"
"Guntakal_Verpatem_D (Andhra Pradesh)","Guntakal_Central_D_2 (Andhra Pradesh)","guntakal_verpatem_d (andhra pradesh)","guntakal_central_d_2 (andhra pradesh)"
"Gurgaon (Haryana)","Gurgaon_Central_D_15 (Haryana)","gurgaon (haryana)","gurgaon_central_d_15 (haryana)"
"Gurgaon_Central_D_1 (Haryana)","Gurgaon_Central_D_17 (Haryana)","gurgaon_central_d_1 (haryana)","gurgaon_central_d_17 (haryana)"
"Gurgaon_Dundahera (Haryana)","Gurgaon_Central_D_16 (Haryana)","gurgaon_dundahera (haryana)","gurgaon_central_d_16 (haryana)"
"Gurgaon_Manesar (Haryana)","Gurgaon_IMTManeshar_D (Haryana)","gurgaon_manesar (haryana)","gurgaon_imtmaneshar_d (haryana)"
"Gurgaon_SohnaRd_D (Haryana)","Gurgaon_Badshahpur_D (Haryana)","gurgaon_sohnard_d (haryana)","gurgaon_badshahpur_d (haryana)"
"Guwahati_East (Assam)","Guwahati_ShyamNgr_D (Assam)","guwahati_east (assam)","guwahati_shyamngr_d (assam)"
"Gwalior_VastrNgrDC (Madhya Pradesh)","Gwalior_Central_D_3 (Madhya Pradesh)","gwalior_vastrngrdc (madhya pradesh)","gwalior_central_d_3 (madhya pradesh)"
"Hailakandi_kalibari_D (Assam)","Hailakandi_GangprDhmkr_D (Assam)","hailakandi_kalibari_d (assam)","hailakandi_gangprdhmkr_d (assam)"
"Haldia_Durgchak_D (West Bengal)","Haldia_Central_D_2 (West Bengal)","haldia_durgchak_d (west bengal)","haldia_central_d_2 (west bengal)"
"Hanskhali_Bagula_D (West Bengal)","Hanskhali_Central_D_1 (West Bengal)","hanskhali_bagula_d (west bengal)","hanskhali_central_d_1 (west bengal)"
"Hapur_Swargash_D (Uttar Pradesh)","Hapur_Central_D_2 (Uttar Pradesh)","hapur_swargash_d (uttar pradesh)","hapur_central_d_2 (uttar pradesh)"
"Hathras (Uttar Pradesh)","Hathras_Kalwari_D (Uttar Pradesh)","hathras (uttar pradesh)","hathras_kalwari_d (uttar pradesh)"
"Himmatnagar_DC (Gujarat)","Himmatnagar_Prabda_D (Gujarat)","himmatnagar_dc (gujarat)","himmatnagar_prabda_d (gujarat)"
"Hindaun_MndwrRod_D (Rajasthan)","Hindaun_Ekolasi_D (Rajasthan)","hindaun_mndwrrod_d (rajasthan)","hindaun_ekolasi_d (rajasthan)"
"Hisar (Haryana)","Hisar_NewModelTwn_D (Haryana)","hisar (haryana)","hisar_newmodeltwn_d (haryana)"
"Hosur_Dc (Tamil Nadu)","Hosur_BypassrRD_D (Tamil Nadu)","hosur_dc (tamil nadu)","hosur_bypassrrd_d (tamil nadu)"
"Hyd_Abids_Dc (Telangana)","Hyderabad_Central_D_6 (Telangana)","hyd_abids_dc (telangana)","hyderabad_central_d_6 (telangana)"
"Hyd_Jeedimetla_Dc (Telangana)","Hyderabad_North_D_2 (Telangana)","hyd_jeedimetla_dc (telangana)","hyderabad_north_d_2 (telangana)"
"Hyderabad_JubleHls_DC (Telangana)","Hyderabad_Jublehills_D (Telangana)","hyderabad_jublehls_dc (telangana)","hyderabad_jublehills_d (telangana)"
"Hyderabad_Malkaj_DC (Telangana)","Hyderabad_East_D_4 (Telangana)","hyderabad_malkaj_dc (telangana)","hyderabad_east_d_4 (telangana)"
"Hyderabad_Tolichwk_D (Telangana)","Hyderabad_Manikonda_D (Telangana)","hyderabad_tolichwk_d (telangana)","hyderabad_manikonda_d (telangana)"
"Hyderabad_Vnstlprm_DC (Telangana)","Hyderabad_South_D_12 (Telangana)","hyderabad_vnstlprm_dc (telangana)","hyderabad_south_d_12 (telangana)"
"Indore_Gurukul_DC (Madhya Pradesh)","INDORE_RAU_D (MADHYA PRADESH)","indore_gurukul_dc (madhya pradesh)","indore_rau_d (madhya pradesh)"
"Indore_Marimata (Madhya Pradesh)","INDORE_RAJMOHALLA_D (MADHYA PRADESH)","indore_marimata (madhya pradesh)","indore_rajmohalla_d (madhya pradesh)"
"Indore_New Palasia (Madhya Pradesh)","Indore_Manishpuri_D (Madhya Pradesh)","indore_new palasia (madhya pradesh)","indore_manishpuri_d (madhya pradesh)"
"Jahu_Sulgwan_D (Himachal Pradesh)","Jahu_Naltu_D (Himachal Pradesh)","jahu_sulgwan_d (himachal pradesh)","jahu_naltu_d (himachal pradesh)"
"Jaipur_Malviya Nagar (Rajasthan)","Jaipur_Central_D_1 (Rajasthan)","jaipur_malviya nagar (rajasthan)","jaipur_central_d_1 (rajasthan)"
"Jalalabad_Muktsar_D (Punjab)","Jalalabad_courtcmplx_D (Punjab)","jalalabad_muktsar_d (punjab)","jalalabad_courtcmplx_d (punjab)"
"Jalandhar_ShahRd_DC (Punjab)","Jalandhar_Raowali_D (Punjab)","jalandhar_shahrd_dc (punjab)","jalandhar_raowali_d (punjab)"
"Jamnagar_Dc (Gujarat)","Jamnagar_KomlNgr_D (Gujarat)","jamnagar_dc (gujarat)","jamnagar_komlngr_d (gujarat)"
"Jamshedpur_Adityapur_DC (Jharkhand)","Jamshedpur_Central_D_4 (Jharkhand)","jamshedpur_adityapur_dc (jharkhand)","jamshedpur_central_d_4 (jharkhand)"
"Jeypore_Kelasahi_D (Orissa)","Jeypore_Phcolony_D (Orissa)","jeypore_kelasahi_d (orissa)","jeypore_phcolony_d (orissa)"
"Jhalawar_MastrCly_D (Rajasthan)","Jhalawar_RTOOffice_D (Rajasthan)","jhalawar_mastrcly_d (rajasthan)","jhalawar_rtooffice_d (rajasthan)"
"Jhansi_LVMColge_D (Uttar Pradesh)","JHANSI_ANSALCOL_D (UTTAR PRADESH)","jhansi_lvmcolge_d (uttar pradesh)","jhansi_ansalcol_d (uttar pradesh)"
"Kalluvathukal_Pariplly_D (Kerala)","Parippally_Payalamkunnu_D (Kerala)","kalluvathukal_pariplly_d (kerala)","parippally_payalamkunnu_d (kerala)"
"Kangra_Central_D_2 (Himachal Pradesh)","Kangra_Ghurkari_D (Himachal Pradesh)","kangra_central_d_2 (himachal pradesh)","kangra_ghurkari_d (himachal pradesh)"
"Kanhangad_Arangadi_D (Kerala)","Kanhangad_Hsdrgfort_D (Kerala)","kanhangad_arangadi_d (kerala)","kanhangad_hsdrgfort_d (kerala)"
"Kanpur (Uttar Pradesh)","Kanpur_Central_D_7 (Uttar Pradesh)","kanpur (uttar pradesh)","kanpur_central_d_7 (uttar pradesh)"
"Kanpur_GovndNgr_DC (Uttar Pradesh)","Kanpur_Central_D_8 (Uttar Pradesh)","kanpur_govndngr_dc (uttar pradesh)","kanpur_central_d_8 (uttar pradesh)"
"Karimganj_Alngjuri_D (Assam)","Karimganj_Silcharrd_D (Assam)","karimganj_alngjuri_d (assam)","karimganj_silcharrd_d (assam)"
"Karjat_VrdnGrdn_D (Maharashtra)","Karjat_Chouk_D (Maharashtra)","karjat_vrdngrdn_d (maharashtra)","karjat_chouk_d (maharashtra)"
"Karur (Tamil Nadu)","Karur_LGBNgr_D (Tamil Nadu)","karur (tamil nadu)","karur_lgbngr_d (tamil nadu)"
"Katihar_Shyndco_D (Bihar)","Katihar_Central_D_2 (Bihar)","katihar_shyndco_d (bihar)","katihar_central_d_2 (bihar)"
"Katra_NmnKotli_D (Jammu & Kashmir)","Katra_Central_D_1 (Jammu & Kashmir)","katra_nmnkotli_d (jammu & kashmir)","katra_central_d_1 (jammu & kashmir)"
"Khandala_Satara_D (Maharashtra)","Khandala_Shrwal_D (Maharashtra)","khandala_satara_d (maharashtra)","khandala_shrwal_d (maharashtra)"
"Kishangarh_GndhiNgr_D (Rajasthan)","Kishangarh_Central_D_2 (Rajasthan)","kishangarh_gndhingr_d (rajasthan)","kishangarh_central_d_2 (rajasthan)"
"Kolhapur_DC (Maharashtra)","Kolhapur_Central_D_3 (Maharashtra)","kolhapur_dc (maharashtra)","kolhapur_central_d_3 (maharashtra)"
"Kolkata_Ruby_DC (West Bengal)","Kolkata_South_D_6 (West Bengal)","kolkata_ruby_dc (west bengal)","kolkata_south_d_6 (west bengal)"
"Koppa_Central_D_2 (Karnataka)","Koppa_Kshlngr_D (Karnataka)","koppa_central_d_2 (karnataka)","koppa_kshlngr_d (karnataka)"
"Kota (Rajasthan)","Kota_Trnsprtngr_D (Rajasthan)","kota (rajasthan)","kota_trnsprtngr_d (rajasthan)"
"Kotdwara_Nzbadrd_D (Uttarakhand)","Kotdwara_Central_D_2 (Uttarakhand)","kotdwara_nzbadrd_d (uttarakhand)","kotdwara_central_d_2 (uttarakhand)"
"Koyilandy_Pshrikvu_D (Kerala)","Koyilandy_Muchukunnu_D (Kerala)","koyilandy_pshrikvu_d (kerala)","koyilandy_muchukunnu_d (kerala)"
"Kozhikode_Murikunu_D (Kerala)","Kozhikode_Malaprmba_D (Kerala)","kozhikode_murikunu_d (kerala)","kozhikode_malaprmba_d (kerala)"
"Kundapura_DC (Karnataka)","Kundapura_Sangam_D (Karnataka)","kundapura_dc (karnataka)","kundapura_sangam_d (karnataka)"
"LakhimpurN_SashPhkn_D (Assam)","LakhimpurN_Chetia_D (Assam)","lakhimpurn_sashphkn_d (assam)","lakhimpurn_chetia_d (assam)"
"Lingasugur_Busstand_D (Karnataka)","Lingasugur_Shivnagara_D (Karnataka)","lingasugur_busstand_d (karnataka)","lingasugur_shivnagara_d (karnataka)"
"Lucknow_Vishnu Lok (Uttar Pradesh)","Lucknow_SectorN1_D (Uttar Pradesh)","lucknow_vishnu lok (uttar pradesh)","lucknow_sectorn1_d (uttar pradesh)"
"Ludhiana_MundianKalan_D (Punjab)","Ludhiana_Janakpuri_D (Punjab)","ludhiana_mundiankalan_d (punjab)","ludhiana_janakpuri_d (punjab)"
"Lunglei_ThnzwlRd_D (Mizoram)","Lunglei_BazarVeng_D (Mizoram)","lunglei_thnzwlrd_d (mizoram)","lunglei_bazarveng_d (mizoram)"
"Machilipatnam_DC (Andhra Pradesh)","Machilipatnam_Chilklpudi_D (Andhra Pradesh)","machilipatnam_dc (andhra pradesh)","machilipatnam_chilklpudi_d (andhra pradesh)"
"Madnapalle_PngnrRd_D (Andhra Pradesh)","Madanapalle_Central_D_2 (Andhra Pradesh)","madnapalle_pngnrrd_d (andhra pradesh)","madanapalle_central_d_2 (andhra pradesh)"
"Madurai (Tamil Nadu)","Madurai_Erkudi_D (Tamil Nadu)","madurai (tamil nadu)","madurai_erkudi_d (tamil nadu)"
"Madurai_Kappalur_D (Tamil Nadu)","Madurai_Utchapatti_D (Tamil Nadu)","madurai_kappalur_d (tamil nadu)","madurai_utchapatti_d (tamil nadu)"
"Mahabubnagar_DC (Telangana)","Mahabubnagar_Srinivasaclny_D (Telangana)","mahabubnagar_dc (telangana)","mahabubnagar_srinivasaclny_d (telangana)"
"Maharajapuram_Krsnakcl_D (Tamil Nadu)","Maharajapuram_Krshnkovil_D (Tamil Nadu)","maharajapuram_krsnakcl_d (tamil nadu)","maharajapuram_krshnkovil_d (tamil nadu)"
"Mahoba_Mlkpura_D (Uttar Pradesh)","Mahoba_Alampura_D (Uttar Pradesh)","mahoba_mlkpura_d (uttar pradesh)","mahoba_alampura_d (uttar pradesh)"
"Malad_West_DC (Maharashtra)","Mumbai_Kanchpada_D (Maharashtra)","malad_west_dc (maharashtra)","mumbai_kanchpada_d (maharashtra)"
"Malavalli_SulthnRd_D (Karnataka)","Malavalli_Central_D_2 (Karnataka)","malavalli_sulthnrd_d (karnataka)","malavalli_central_d_2 (karnataka)"
"Mancherial_Hitech_D (Telangana)","Mancherial_GSTPlaza_D (Telangana)","mancherial_hitech_d (telangana)","mancherial_gstplaza_d (telangana)"
"Mangaldoi_LNBRoad_D (Assam)","Mangaldoi_Bhebarghat_D (Assam)","mangaldoi_lnbroad_d (assam)","mangaldoi_bhebarghat_d (assam)"
"Medchal_MROoffce_D (Telangana)","Medchal_VinaykaNagar_D (Telangana)","medchal_mrooffce_d (telangana)","medchal_vinaykanagar_d (telangana)"
"Meerut (Uttar Pradesh)","Meerut_DhynchndNgr_D (Uttar Pradesh)","meerut (uttar pradesh)","meerut_dhynchndngr_d (uttar pradesh)"
"Mettur_RTOroad_D (Tamil Nadu)","Mettur_Samballi_D (Tamil Nadu)","mettur_rtoroad_d (tamil nadu)","mettur_samballi_d (tamil nadu)"
"Mghlsrai_Barambab_D (Uttar Pradesh)","MughalSarai_Central_D_2 (Uttar Pradesh)","mghlsrai_barambab_d (uttar pradesh)","mughalsarai_central_d_2 (uttar pradesh)"
"Moradabad_DC (Uttar Pradesh)","Moradabad_Majhola_D (Uttar Pradesh)","moradabad_dc (uttar pradesh)","moradabad_majhola_d (uttar pradesh)"
"Muktsar_DC (Punjab)","Muktsar_Trnsahib_D (Punjab)","muktsar_dc (punjab)","muktsar_trnsahib_d (punjab)"
"Mumbai Borivali (Maharashtra)","Mumbai_RajendraNgr_D (Maharashtra)","mumbai borivali (maharashtra)","mumbai_rajendrangr_d (maharashtra)"
"Mumbai_Ambernath_Dc (Maharashtra)","MUMBAI_UDYOGBHAVAN_D (MAHARASHTRA)","mumbai_ambernath_dc (maharashtra)","mumbai_udyogbhavan_d (maharashtra)"
"Mumbai_Kandivali_East (Maharashtra)","Mumbai_Central_D_14 (Maharashtra)","mumbai_kandivali_east (maharashtra)","mumbai_central_d_14 (maharashtra)"
"Muzaffarpur_Bbganj_DC (Bihar)","MUZAFFARPUR_GANNIPUR_D (Bihar)","muzaffarpur_bbganj_dc (bihar)","muzaffarpur_gannipur_d (bihar)"
"Mysore (Karnataka)","Mysore_RamanujaRd_D (Karnataka)","mysore (karnataka)","mysore_ramanujard_d (karnataka)"
"Mysore_Yadvgiri_DC (Karnataka)","Mysore_Ringroad_D (Karnataka)","mysore_yadvgiri_dc (karnataka)","mysore_ringroad_d (karnataka)"
"Nagda_Birlagrm_D (Madhya Pradesh)","Nagda_Prakashngr_D (Madhya Pradesh)","nagda_birlagrm_d (madhya pradesh)","nagda_prakashngr_d (madhya pradesh)"
"Nagpur (Maharashtra)","Nagpur_Badilkheda_D (Maharashtra)","nagpur (maharashtra)","nagpur_badilkheda_d (maharashtra)"
"Nagpur_Jaripatk_DC (Maharashtra)","Nagpur_Jaripatka_D (Maharashtra)","nagpur_jaripatk_dc (maharashtra)","nagpur_jaripatka_d (maharashtra)"
"Nanded_Dc (Maharashtra)","Nanded_Central_D_3 (Maharashtra)","nanded_dc (maharashtra)","nanded_central_d_3 (maharashtra)"
"Narnaul_DC (Haryana)","Narnaul_Kailashnagar_D (Haryana)","narnaul_dc (haryana)","narnaul_kailashnagar_d (haryana)"
"Narsinghgarh_Raj_D (Madhya Pradesh)","Narsinghgarh_Central_D_1 (Madhya Pradesh)","narsinghgarh_raj_d (madhya pradesh)","narsinghgarh_central_d_1 (madhya pradesh)"
"Nazira_WardNo10_D (Assam)","Nazira_Amina_D (Assam)","nazira_wardno10_d (assam)","nazira_amina_d (assam)"
"Neemrana_Rcocmplx_D (Rajasthan)","Neemrana_Mohllrn_D (Rajasthan)","neemrana_rcocmplx_d (rajasthan)","neemrana_mohllrn_d (rajasthan)"
"Nellore_DC (Andhra Pradesh)","Nellore_Anagunta_D (Andhra Pradesh)","nellore_dc (andhra pradesh)","nellore_anagunta_d (andhra pradesh)"
"Nipani_AkkolRD_D (Karnataka)","Nipani_Shivjingr_D (Karnataka)","nipani_akkolrd_d (karnataka)","nipani_shivjingr_d (karnataka)"
"Noida_Sec-16_DC (Uttar Pradesh)","NOIDA_SECTOR-2_D (UTTAR PRADESH)","noida_sec-16_dc (uttar pradesh)","noida_sector-2_d (uttar pradesh)"
"Noida_Sec-60_DC (Uttar Pradesh)","Noida_Sec58_DC (Uttar Pradesh)","noida_sec-60_dc (uttar pradesh)","noida_sec58_dc (uttar pradesh)"
"Noida_Sec-83_DC (Uttar Pradesh)","Noida_Sector-88_D (Uttar Pradesh)","noida_sec-83_dc (uttar pradesh)","noida_sector-88_d (uttar pradesh)"
"North BLR (Karnataka)","Bengaluru_Thanisandra_D (Karnataka)","north blr (karnataka)","bengaluru_thanisandra_d (karnataka)"
"Palampur_Cnsrvila_D (Himachal Pradesh)","Palampur_Berachah_D (Himachal Pradesh)","palampur_cnsrvila_d (himachal pradesh)","palampur_berachah_d (himachal pradesh)"
"Pallakad_ChndrNgr_D (Kerala)","Palakkad_Prtibhangr_D (Kerala)","pallakad_chndrngr_d (kerala)","palakkad_prtibhangr_d (kerala)"
"Panskura_Dakshin_D (West Bengal)","Panskura_Central_D_3 (West Bengal)","panskura_dakshin_d (west bengal)","panskura_central_d_3 (west bengal)"
"Parvathipuram_Block5_D (Andhra Pradesh)","Parvathipuram_Central_D_2 (Andhra Pradesh)","parvathipuram_block5_d (andhra pradesh)","parvathipuram_central_d_2 (andhra pradesh)"
"Patna_1 (Bihar)","Patna_Kankarbagh_D (Bihar)","patna_1 (bihar)","patna_kankarbagh_d (bihar)"
"Peravurani_SH71_D (Tamil Nadu)","Peravurani_KSNgr_D (Tamil Nadu)","peravurani_sh71_d (tamil nadu)","peravurani_ksngr_d (tamil nadu)"
"Perumbavor_SrRmMnsn_D (Kerala)","Perumbavoor_Central_D_2 (Kerala)","perumbavor_srrmmnsn_d (kerala)","perumbavoor_central_d_2 (kerala)"
"Pollachi_Venkatsa_DC (Tamil Nadu)","Pollachi_Lakshimipuram_D (Tamil Nadu)","pollachi_venkatsa_dc (tamil nadu)","pollachi_lakshimipuram_d (tamil nadu)"
"Pondicherry_AnnaNgr_DC (Pondicherry)","Pondicherry_Villianur_D (Pondicherry)","pondicherry_annangr_dc (pondicherry)","pondicherry_villianur_d (pondicherry)"
"Pune Anand Nagar (Maharashtra)","Pune_Suncity_D (Maharashtra)","pune anand nagar (maharashtra)","pune_suncity_d (maharashtra)"
"Pune Balaji Nagar (Maharashtra)","Pune_Vinkar_D (Maharashtra)","pune balaji nagar (maharashtra)","pune_vinkar_d (maharashtra)"
"Pune Chandan Nagar (Maharashtra)","Pune_Vadgaonsheri_D (Maharashtra)","pune chandan nagar (maharashtra)","pune_vadgaonsheri_d (maharashtra)"
"Pune Fatima Nagar (Maharashtra)","Pune_East_D_8 (Maharashtra)","pune fatima nagar (maharashtra)","pune_east_d_8 (maharashtra)"
"Pune Hadapsar DC (Maharashtra)","Pune_Fursungi_D (Maharashtra)","pune hadapsar dc (maharashtra)","pune_fursungi_d (maharashtra)"
"Pune_ Tingrenagar Dc (Maharashtra)","Pune_North_D_4 (Maharashtra)","pune_ tingrenagar dc (maharashtra)","pune_north_d_4 (maharashtra)"
"Pune_Camp_Dc (Maharashtra)","Pune_West_D_9 (Maharashtra)","pune_camp_dc (maharashtra)","pune_west_d_9 (maharashtra)"
"Pune_Chimbali_D (Maharashtra)","Pune_North_D_3 (Maharashtra)","pune_chimbali_d (maharashtra)","pune_north_d_3 (maharashtra)"
"Pune_Hinjawadi_Dc (Maharashtra)","Pune_East_D_7 (Maharashtra)","pune_hinjawadi_dc (maharashtra)","pune_east_d_7 (maharashtra)"
"Pune_Wagholi_D (Maharashtra)","Wagholi_Central_D_2 (Maharashtra)","pune_wagholi_d (maharashtra)","wagholi_central_d_2 (maharashtra)"
"Puri_DC (Orissa)","Puri_Central_D_2 (Orissa)","puri_dc (orissa)","puri_central_d_2 (orissa)"
"Purnia_BhataBzr_D (Bihar)","Purnia_Jantachwk_D (Bihar)","purnia_bhatabzr_d (bihar)","purnia_jantachwk_d (bihar)"
"Raipur_DC (Chhattisgarh)","Raipur_Central_D_5 (Chhattisgarh)","raipur_dc (chhattisgarh)","raipur_central_d_5 (chhattisgarh)"
"Rajamundry_DC (Andhra Pradesh)","Rajahmundry_Tummalava_D (Andhra Pradesh)","rajamundry_dc (andhra pradesh)","rajahmundry_tummalava_d (andhra pradesh)"
"Rajgangpur_Talkipad_D (Orissa)","Rajgangpur_Central_D_2 (Orissa)","rajgangpur_talkipad_d (orissa)","rajgangpur_central_d_2 (orissa)"
"Rajpura_DC (Punjab)","Rajpura_Preetcolny_D (Punjab)","rajpura_dc (punjab)","rajpura_preetcolny_d (punjab)"
"Rajsamand_kankroli_D (Rajasthan)","Rajsamand_Dipti_D (Rajasthan)","rajsamand_kankroli_d (rajasthan)","rajsamand_dipti_d (rajasthan)"
"Ramanagara_BMRd_DC (Karnataka)","Ramanagara_Ijor_D (Karnataka)","ramanagara_bmrd_dc (karnataka)","ramanagara_ijor_d (karnataka)"
"Ramnagar_BhwniGnj_D (Uttarakhand)","Ramnagar_Central_D_2 (Uttarakhand)","ramnagar_bhwnignj_d (uttarakhand)","ramnagar_central_d_2 (uttarakhand)"
"Ranchi_BOCCmpd_D (Jharkhand)","Ranchi_Kokar_D (Jharkhand)","ranchi_boccmpd_d (jharkhand)","ranchi_kokar_d (jharkhand)"
"Rewa_Dc (Madhya Pradesh)","Rewa_Saman_D (Madhya Pradesh)","rewa_dc (madhya pradesh)","rewa_saman_d (madhya pradesh)"
"Rohtak (Haryana)","Rohtak_AzdGrh_D (Haryana)","rohtak (haryana)","rohtak_azdgrh_d (haryana)"
"RoopNagar_ChotiHvl_DC (Punjab)","Rupnagar_Shampura_D (Punjab)","roopnagar_chotihvl_dc (punjab)","rupnagar_shampura_d (punjab)"
"Sambalpur_Mouza_D (Orissa)","Sambalpur_Kansir_D (Orissa)","sambalpur_mouza_d (orissa)","sambalpur_kansir_d (orissa)"
"Sangamner_JawanChk_D (Maharashtra)","Sangamner_Ksarwdi_D (Maharashtra)","sangamner_jawanchk_d (maharashtra)","sangamner_ksarwdi_d (maharashtra)"
"Sasaram_JgdeoNgr_D (Bihar)","Sasaram_Central_D_2 (Bihar)","sasaram_jgdeongr_d (bihar)","sasaram_central_d_2 (bihar)"
"Satna (Madhya Pradesh)","Satna_Central_D_2 (Madhya Pradesh)","satna (madhya pradesh)","satna_central_d_2 (madhya pradesh)"
"Sendhwa_VishnuVhr_D (Madhya Pradesh)","Sendhwa_Jlwanya_D (Madhya Pradesh)","sendhwa_vishnuvhr_d (madhya pradesh)","sendhwa_jlwanya_d (madhya pradesh)"
"Seoni_Kidwai_D (Madhya Pradesh)","Seoni_Dalsagar_D (Madhya Pradesh)","seoni_kidwai_d (madhya pradesh)","seoni_dalsagar_d (madhya pradesh)"
"Sheikhpura_Bgwtichk_D (Bihar)","Sheikhpura_Yeyapr_D (Bihar)","sheikhpura_bgwtichk_d (bihar)","sheikhpura_yeyapr_d (bihar)"
"Shimoga_DC (Karnataka)","Shimoga_Central_D_2 (Karnataka)","shimoga_dc (karnataka)","shimoga_central_d_2 (karnataka)"
"Sikandrabd_GTRoad_D (Uttar Pradesh)","Sikandrabad_Kurli_D (Uttar Pradesh)","sikandrabd_gtroad_d (uttar pradesh)","sikandrabad_kurli_d (uttar pradesh)"
"Sikar_DC (Rajasthan)","Sikar_Central_D_2 (Rajasthan)","sikar_dc (rajasthan)","sikar_central_d_2 (rajasthan)"
"Silapathar_Hejunagr_D (Assam)","Silapathar_Junakinagar_D (Assam)","silapathar_hejunagr_d (assam)","silapathar_junakinagar_d (assam)"
"Silchar_Tarapur_D (Assam)","Silchar_Meherpur_D (Assam)","silchar_tarapur_d (assam)","silchar_meherpur_d (assam)"
"Siwan_HnmntNgr_D (Bihar)","Siwan_StationRD_D (Bihar)","siwan_hnmntngr_d (bihar)","siwan_stationrd_d (bihar)"
"Sujanpur_SainkSCL_D (Himachal Pradesh)","Sujanpur_Busstandrd_D (Himachal Pradesh)","sujanpur_sainkscl_d (himachal pradesh)","sujanpur_busstandrd_d (himachal pradesh)"
"Surat_Nanpura_Dc (Gujarat)","Surat_Central_D_12 (Gujarat)","surat_nanpura_dc (gujarat)","surat_central_d_12 (gujarat)"
"Surat_Varachha_DC (Gujarat)","Surat_Chikuw_D (Gujarat)","surat_varachha_dc (gujarat)","surat_chikuw_d (gujarat)"
"Surathkal_DC (Karnataka)","Surathkal_Iddya_D (Karnataka)","surathkal_dc (karnataka)","surathkal_iddya_d (karnataka)"
"TalwandiSabo_Wardno3_D (Punjab)","TalwandiSabo_Shekhpura_D (Punjab)","talwandisabo_wardno3_d (punjab)","talwandisabo_shekhpura_d (punjab)"
"Teliamura_SantiNGR_D (Tripura)","Teliamura_Gakulnagar_D (Tripura)","teliamura_santingr_d (tripura)","teliamura_gakulnagar_d (tripura)"
"Thalassery_TCRoad_D (Kerala)","Thalassery_Chetmkunu_D (Kerala)","thalassery_tcroad_d (kerala)","thalassery_chetmkunu_d (kerala)"
"Thanjavur_DC (Tamil Nadu)","Thanjavur_GetaNgr_D (Tamil Nadu)","thanjavur_dc (tamil nadu)","thanjavur_getangr_d (tamil nadu)"
"Tindivanam_Sanjeev_D (Tamil Nadu)","Tindivanam_Central_D_2 (Tamil Nadu)","tindivanam_sanjeev_d (tamil nadu)","tindivanam_central_d_2 (tamil nadu)"
"Tirunelveli_BabujiNr_DC (Tamil Nadu)","Tirunelveli_BlaPkyaNgr_D (Tamil Nadu)","tirunelveli_babujinr_dc (tamil nadu)","tirunelveli_blapkyangr_d (tamil nadu)"
"Tirupur (Tamil Nadu)","Tirupur_Central_D_3 (Tamil Nadu)","tirupur (tamil nadu)","tirupur_central_d_3 (tamil nadu)"
"Udupi (Karnataka)","Udupi_Central_D_2 (Karnataka)","udupi (karnataka)","udupi_central_d_2 (karnataka)"
"Ullal_Kapikad_D (Karnataka)","Ullal_Thokkottu_D (Karnataka)","ullal_kapikad_d (karnataka)","ullal_thokkottu_d (karnataka)"
"Vadodara (Gujarat)","Vadodara_Tandalja_D (Gujarat)","vadodara (gujarat)","vadodara_tandalja_d (gujarat)"
"Vansda_CikhliRD_D (Gujarat)","Vansda_Chikatiya_D (Gujarat)","vansda_cikhlird_d (gujarat)","vansda_chikatiya_d (gujarat)"
"Vijaywada_Tadigdpa_DC (Andhra Pradesh)","Vijayawada_Central_D_4 (Andhra Pradesh)","vijaywada_tadigdpa_dc (andhra pradesh)","vijayawada_central_d_4 (andhra pradesh)"
"Visakhapatnam_VislkNgr_DC (Andhra Pradesh)","Visakhapatnam_Sagarngr_D (Andhra Pradesh)","visakhapatnam_vislkngr_dc (andhra pradesh)","visakhapatnam_sagarngr_d (andhra pradesh)"
"YamunaNagar_DC (Haryana)","Yamunanagar_Veerngrcly_D (Haryana)","yamunanagar_dc (haryana)","yamunanagar_veerngrcly_d (haryana)"
"Yerrguntla_Subba_D (Andhra Pradesh)","Proddatur_Central_D_2 (Andhra Pradesh)","yerrguntla_subba_d (andhra pradesh)","proddatur_central_d_2 (andhra pradesh)"
"Digapahandi_Central_D_1 (Orissa)","Digapahandi_Busstand_D (Orissa)","digapahandi_central_d_1 (orissa)","digapahandi_busstand_d (orissa)"
"Naugarh_Central_D_1 (Uttar Pradesh)","Naugarh_Trtribazar_D (Uttar Pradesh)","naugarh_central_d_1 (uttar pradesh)","naugarh_trtribazar_d (uttar pradesh)"
"Mumbai_Chndivli_D (Maharashtra)","Mumbai_Sakiviharrd_D (Maharashtra)","mumbai_chndivli_d (maharashtra)","mumbai_sakiviharrd_d (maharashtra)"
"Rajkot_Navagam_D (Gujarat)","Rajkot_KothriyaColny_D (Gujarat)","rajkot_navagam_d (gujarat)","rajkot_kothriyacolny_d (gujarat)"
"Rampur_Manihran_D (Uttar Pradesh)","Rampur_Jagrolly_D (Uttar Pradesh)","rampur_manihran_d (uttar pradesh)","rampur_jagrolly_d (uttar pradesh)"
"Bhupalpally_JwahrNGR_D (Telangana)","Bhupalpally_Hitechcol_D (Telangana)","bhupalpally_jwahrngr_d (telangana)","bhupalpally_hitechcol_d (telangana)"
"Hungund_ChtvdiRD_D (Karnataka)","ILKAL_APMCRD_D (KARNATAKA)","hungund_chtvdird_d (karnataka)","ilkal_apmcrd_d (karnataka)"
"Shahada_Nandrbar_D (Maharashtra)","Shahada_Untavad_D (Maharashtra)","shahada_nandrbar_d (maharashtra)","shahada_untavad_d (maharashtra)"
"Renwal_ChomuRD_D (Rajasthan)","Renwal_Harsoli_D (Rajasthan)","renwal_chomurd_d (rajasthan)","renwal_harsoli_d (rajasthan)"
"Jagdalpur_ShntiNGR_D (Chhattisgarh)","Jagdalpur_Hatkchora_D (Chhattisgarh)","jagdalpur_shntingr_d (chhattisgarh)","jagdalpur_hatkchora_d (chhattisgarh)"
"Surat_Central_D_3 (Gujarat)","Surat_Katargam_D (Gujarat)","surat_central_d_3 (gujarat)","surat_katargam_d (gujarat)"
"Sikandarpur_Central_D_3 (Uttar Pradesh)","Sikandarpur_Central_D_4 (Uttar Pradesh)","sikandarpur_central_d_3 (uttar pradesh)","sikandarpur_central_d_4 (uttar pradesh)"
"Agra_Central_D_4 (Uttar Pradesh)","Agra_Khndri_D (Uttar Pradesh)","agra_central_d_4 (uttar pradesh)","agra_khndri_d (uttar pradesh)"
"Ambikapur_Subshngr_D (Chhattisgarh)","Ambikapur_Rgunatpr_D (Chhattisgarh)","ambikapur_subshngr_d (chhattisgarh)","ambikapur_rgunatpr_d (chhattisgarh)"
"Gurgaon_Central_D_20 (Haryana)","Gurgaon_DLFPhase4_D (Haryana)","gurgaon_central_d_20 (haryana)","gurgaon_dlfphase4_d (haryana)"
"Kannad_Central_D_1 (Maharashtra)","Kannad_ShantiNgr_D (Maharashtra)","kannad_central_d_1 (maharashtra)","kannad_shantingr_d (maharashtra)"
"Udaipur_Central_D_2 (Rajasthan)","Udaipur_TekriRd_D (Rajasthan)","udaipur_central_d_2 (rajasthan)","udaipur_tekrird_d (rajasthan)"
"Jamalpur_Central_D_1 (West Bengal)","Jamalpur_Halara_D (West Bengal)","jamalpur_central_d_1 (west bengal)","jamalpur_halara_d (west bengal)"
"Howrah_Central_D_4 (West Bengal)","Howrah_Salap_DC (West Bengal)","howrah_central_d_4 (west bengal)","howrah_salap_dc (west bengal)"
"RamganjMandi_KrishnaColny_D (Rajasthan)","Ramganjmandi_Gundi_D (Rajasthan)","ramganjmandi_krishnacolny_d (rajasthan)","ramganjmandi_gundi_d (rajasthan)"
"Kudus_Chnchghr_D (Maharashtra)","Kudus_RaiRmaCmplex_D (Maharashtra)","kudus_chnchghr_d (maharashtra)","kudus_rairmacmplex_d (maharashtra)"
"Bettiah_BypassRd_D (Bihar)","Bettiah_Banuchpar_D (Bihar)","bettiah_bypassrd_d (bihar)","bettiah_banuchpar_d (bihar)"
"Robertsganj_Urmaura_D (Uttar Pradesh)","Robertsganj_Ghurma_D (Uttar Pradesh)","robertsganj_urmaura_d (uttar pradesh)","robertsganj_ghurma_d (uttar pradesh)"
"Chandigarh_Mohali (Chandigarh)","Chandigarh_MohliPhase8_D (Punjab)","chandigarh_mohali (chandigarh)","chandigarh_mohliphase8_d (punjab)"
"Chandigarh_Panchkula (Chandigarh)","Chandigarh_Raiprkln_D (Chandigarh)","chandigarh_panchkula (chandigarh)","chandigarh_raiprkln_d (chandigarh)"
"BilaspurHP_Indsarea_D (Himachal Pradesh)","BilaspurHP_Kothi_D (Himachal Pradesh)","bilaspurhp_indsarea_d (himachal pradesh)","bilaspurhp_kothi_d (himachal pradesh)"
"Kotkapura_DC (Punjab)","Kotkapura_BusStand_D (Punjab)","kotkapura_dc (punjab)","kotkapura_busstand_d (punjab)"
"Haldwani_PiliKoti_D (Uttarakhand)","Haldwani_LalDanth_D (Uttarakhand)","haldwani_pilikoti_d (uttarakhand)","haldwani_laldanth_d (uttarakhand)"
"Guntur_DC (Andhra Pradesh)","Guntur_Arundelpet_D (Andhra Pradesh)","guntur_dc (andhra pradesh)","guntur_arundelpet_d (andhra pradesh)"
"Mangalore (Karnataka)","Mangalore_Konchady_D (Karnataka)","mangalore (karnataka)","mangalore_konchady_d (karnataka)"
"Surathkal_Iddya_D (Karnataka)","Surathkal_Mukka_D (Karnataka)","surathkal_iddya_d (karnataka)","surathkal_mukka_d (karnataka)"
"Motihari_RajaBzr_D (Bihar)","Motihari_Bariyarpur_D (Bihar)","motihari_rajabzr_d (bihar)","motihari_bariyarpur_d (bihar)"
"Soro_Central_D_2 (Orissa)","Soro_Mangalpur_D (Orissa)","soro_central_d_2 (orissa)","soro_mangalpur_d (orissa)"
"Tirupati_Gngmatpl_D (Andhra Pradesh)","Tirupati_Autonagar_D (Andhra Pradesh)","tirupati_gngmatpl_d (andhra pradesh)","tirupati_autonagar_d (andhra pradesh)"
"Kayamkulam_bhrnikvu_d (kerala)","Kayamkulam_Peringala_D (Kerala)","kayamkulam_bhrnikvu_d (kerala)","kayamkulam_peringala_d (kerala)"
"Vadakkencherry_Robinson_D (Kerala)","Anjumoorthy_Mnapra_D (Kerala)","vadakkencherry_robinson_d (kerala)","anjumoorthy_mnapra_d (kerala)"
"Bengaluru_Thanisandra_D (Karnataka)","Bangalore_Thanisandra_D (Karnataka)","bengaluru_thanisandra_d (karnataka)","bangalore_thanisandra_d (karnataka)"
"Cumbum_LFRoad_D (Tamil Nadu)","Cumbum_BhrthiyarNgr_D (Tamil Nadu)","cumbum_lfroad_d (tamil nadu)","cumbum_bhrthiyarngr_d (tamil nadu)"
"Printhlmna_EmsPnmbi_D (Kerala)","Perinthlmnna_Angdipuram_D (Kerala)","printhlmna_emspnmbi_d (kerala)","perinthlmnna_angdipuram_d (kerala)"
"Usilampatti_MrutiNGR_D (Tamil Nadu)","Usilampatti_NgaikdaiBzar_D (Tamil Nadu)","usilampatti_mrutingr_d (tamil nadu)","usilampatti_ngaikdaibzar_d (tamil nadu)"
"Gurgaon_IMTManeshar_D (Haryana)","Gurgaon_IMTMnesar_D (Haryana)","gurgaon_imtmaneshar_d (haryana)","gurgaon_imtmnesar_d (haryana)"
"Amethi_Srvnpr_D (Uttar Pradesh)","Amethi_Kherauna_D (Uttar Pradesh)","amethi_srvnpr_d (uttar pradesh)","amethi_kherauna_d (uttar pradesh)"
"Bangriposi_Central_D_2 (Orissa)","Bangriposi_Majigan_D (Orissa)","bangriposi_central_d_2 (orissa)","bangriposi_majigan_d (orissa)"
"Dehradun_Central_D_3 (Uttarakhand)","Dehradun_Dwara_D (Uttarakhand)","dehradun_central_d_3 (uttarakhand)","dehradun_dwara_d (uttarakhand)"
"Fatehpur_Kotwali_D (Uttar Pradesh)","Fatehpur_Gadhiwa_D (Uttar Pradesh)","fatehpur_kotwali_d (uttar pradesh)","fatehpur_gadhiwa_d (uttar pradesh)"
"Bengaluru_Richmond_Dc (Karnataka)","Bangalore_AshokNgr_D (Karnataka)","bengaluru_richmond_dc (karnataka)","bangalore_ashokngr_d (karnataka)"
"Bengaluru_Wilson Garden_Dc (Karnataka)","Bangalore_AshokNgr_D (Karnataka)","bengaluru_wilson garden_dc (karnataka)","bangalore_ashokngr_d (karnataka)"
"Tinusukia_Chrwpaty_D (Assam)","Tinsukia_Borguri_D (Assam)","tinusukia_chrwpaty_d (assam)","tinsukia_borguri_d (assam)"
"Delhi_mukherjeenagar (Delhi)","Delhi_Jahangirpuri_D (Delhi)","delhi_mukherjeenagar (delhi)","delhi_jahangirpuri_d (delhi)"
"Tiptur_YTRd_D (Karnataka)","Tiptur_Chmundeshwri_D (Karnataka)","tiptur_ytrd_d (karnataka)","tiptur_chmundeshwri_d (karnataka)"
"Tenkasi_RailwyRd_D (Tamil Nadu)","Tenkasi_RailwayRdNew_D (Tamil Nadu)","tenkasi_railwyrd_d (tamil nadu)","tenkasi_railwayrdnew_d (tamil nadu)"
"Darbhanga (Bihar)","Darbhanga_Ekmi_D (Bihar)","darbhanga (bihar)","darbhanga_ekmi_d (bihar)"
"Sehore_Mangalam_D (Madhya Pradesh)","Sehore_MurliRd_D (Madhya Pradesh)","sehore_mangalam_d (madhya pradesh)","sehore_murlird_d (madhya pradesh)"
"Alipurduar_Newtown_D (West Bengal)","Alipurduar_Sobhaganj_D (West Bengal)","alipurduar_newtown_d (west bengal)","alipurduar_sobhaganj_d (west bengal)"
"Jetpur_DC (Gujarat)","Jetpur_TinBatiChowk_D (Gujarat)","jetpur_dc (gujarat)","jetpur_tinbatichowk_d (gujarat)"
"Namsai_HelipadRD_D (Arunachal Pradesh)","Namsai_TinaliRd_D (Arunachal Pradesh)","namsai_helipadrd_d (arunachal pradesh)","namsai_tinalird_d (arunachal pradesh)"
"Kannur_OndenRd_D (Kerala)","Kannur_SNParkRd_D (Kerala)","kannur_ondenrd_d (kerala)","kannur_snparkrd_d (kerala)"
"Nallepilly_Thekedesom_D (Kerala)","Nallepilly_Chittur_D (Kerala)","nallepilly_thekedesom_d (kerala)","nallepilly_chittur_d (kerala)"
"Jalandhar_DC (Punjab)","Jalandhar_UrbanEstate_D (Punjab)","jalandhar_dc (punjab)","jalandhar_urbanestate_d (punjab)"
"Chalakudy_SurbhiTh_D (Kerala)","Chlakudy_vlikulamrd_d (Kerala)","chalakudy_surbhith_d (kerala)","chlakudy_vlikulamrd_d (kerala)"
"Marthandam_Nallur_D (Tamil Nadu)","Marthandam_Knchiracode_D (Tamil Nadu)","marthandam_nallur_d (tamil nadu)","marthandam_knchiracode_d (tamil nadu)"
"Chennai_Potheri (Tamil Nadu)","Chennai_Thailvarm_D (Tamil Nadu)","chennai_potheri (tamil nadu)","chennai_thailvarm_d (tamil nadu)"
"Davangere_ApmcYard_D (Karnataka)","Davangere_Karur_D (Karnataka)","davangere_apmcyard_d (karnataka)","davangere_karur_d (karnataka)"
"Koduru_MGRoad_D (Andhra Pradesh)","Koduru_BusStand_D (Andhra Pradesh)","koduru_mgroad_d (andhra pradesh)","koduru_busstand_d (andhra pradesh)"
"Amreli_MrktYrd_DC (Gujarat)","Amreli_StationRd_D (Gujarat)","amreli_mrktyrd_dc (gujarat)","amreli_stationrd_d (gujarat)"
"Bhopal_Old City (Madhya Pradesh)","Bhopal_Talaiya_D (Madhya Pradesh)","bhopal_old city (madhya pradesh)","bhopal_talaiya_d (madhya pradesh)"
"Madanapalle_Central_D_2 (Andhra Pradesh)","Madanapalle_Katbavi_D (Andhra Pradesh)","madanapalle_central_d_2 (andhra pradesh)","madanapalle_katbavi_d (andhra pradesh)"
"Chennai_Poonamallee (Tamil Nadu)","Chennai_MGNagar_D (Tamil Nadu)","chennai_poonamallee (tamil nadu)","chennai_mgnagar_d (tamil nadu)"
"Khaga_Aydhmndr_D (Uttar Pradesh)","Khaga_GTRoad_D (Uttar Pradesh)","khaga_aydhmndr_d (uttar pradesh)","khaga_gtroad_d (uttar pradesh)"
"Lalganj_AdrshNGR_D (Uttar Pradesh)","Lalganj_AzadNgrRd_D (Uttar Pradesh)","lalganj_adrshngr_d (uttar pradesh)","lalganj_azadngrrd_d (uttar pradesh)"
"Unnao_VikasRam_D (Uttar Pradesh)","Unnao_LokNagar_D (Uttar Pradesh)","unnao_vikasram_d (uttar pradesh)","unnao_loknagar_d (uttar pradesh)"
"Delhi_Ghonda_D (Delhi)","Delhi_YmunaVihar_D (Delhi)","delhi_ghonda_d (delhi)","delhi_ymunavihar_d (delhi)"
"Ichlkarnji_prmrthan_d (maharashtra)","Ichalkaranji_TmbeMala_D (Maharashtra)","ichlkarnji_prmrthan_d (maharashtra)","ichalkaranji_tmbemala_d (maharashtra)"
"Daspalla_Jagapur_D (Orissa)","Daspalla_KrushnChndrapur_D (Orissa)","daspalla_jagapur_d (orissa)","daspalla_krushnchndrapur_d (orissa)"
"Venjaramoodu_Prnmla_D (Kerala)","Venjaramoodu_ARStower_D (Kerala)","venjaramoodu_prnmla_d (kerala)","venjaramoodu_arstower_d (kerala)"
"Noida_Sec58_DC (Uttar Pradesh)","Noida_Sector59_D (Uttar Pradesh)","noida_sec58_dc (uttar pradesh)","noida_sector59_d (uttar pradesh)"
"Kangayam_Thvlrsrt_D (Tamil Nadu)","Kangeyam_ThirupurRD_D (Tamil Nadu)","kangayam_thvlrsrt_d (tamil nadu)","kangeyam_thirupurrd_d (tamil nadu)"
"Delhi_Todapur_DC (Delhi)","Delhi_Karolbagh_D (Delhi)","delhi_todapur_dc (delhi)","delhi_karolbagh_d (delhi)"
"Palwal (Haryana)","Palwal_JawaharNgr_D (Haryana)","palwal (haryana)","palwal_jawaharngr_d (haryana)"
"Kanakapura_vanithtr_d (karnataka)","Kanakapura_RamnagarRd_D (Karnataka)","kanakapura_vanithtr_d (karnataka)","kanakapura_ramnagarrd_d (karnataka)"
"Vapi (Gujarat)","Vapi_GIDC_D (Gujarat)","vapi (gujarat)","vapi_gidc_d (gujarat)"
"Sambalpur_Kansir_D (Orissa)","Sambalpur_Tentelpara_D (Orissa)","sambalpur_kansir_d (orissa)","sambalpur_tentelpara_d (orissa)"
"Pune PNQ (Maharashtra)","Pune_Kothrud_D (Maharashtra)","pune pnq (maharashtra)","pune_kothrud_d (maharashtra)"
"Cuddapah_DC (Andhra Pradesh)","Cuddapah_LohiyaNgr_D (Andhra Pradesh)","cuddapah_dc (andhra pradesh)","cuddapah_lohiyangr_d (andhra pradesh)"
"Hardoi_RailwGnj_D (Uttar Pradesh)","Hardoi_AvsVikasColny_D (Uttar Pradesh)","hardoi_railwgnj_d (uttar pradesh)","hardoi_avsvikascolny_d (uttar pradesh)"
"Kanigiri_Tiglgndi_D (Andhra Pradesh)","Kanigiri_Tkriplm_D (Andhra Pradesh)","kanigiri_tiglgndi_d (andhra pradesh)","kanigiri_tkriplm_d (andhra pradesh)"
"Proddatur_Central_D_2 (Andhra Pradesh)","Proddatur_SaiNgr_D (Andhra Pradesh)","proddatur_central_d_2 (andhra pradesh)","proddatur_saingr_d (andhra pradesh)"
"Phagwara_DC (Punjab)","Phagwara_PurewalNgr_D (Punjab)","phagwara_dc (punjab)","phagwara_purewalngr_d (punjab)"
"Khairthal_Agrsncrcl_D (Rajasthan)","Khairthal_HarsoliRd_D (Rajasthan)","khairthal_agrsncrcl_d (rajasthan)","khairthal_harsolird_d (rajasthan)"
"Neemrana_Mohllrn_D (Rajasthan)","Neemrana_Riico_D (Rajasthan)","neemrana_mohllrn_d (rajasthan)","neemrana_riico_d (rajasthan)"
"Rangia_HosptlRd_D (Assam)","Rangia_Ward4_D (Assam)","rangia_hosptlrd_d (assam)","rangia_ward4_d (assam)"
"Dholpur_GtRoad_D (Rajasthan)","Dholpur_AshkVharColny_D (Rajasthan)","dholpur_gtroad_d (rajasthan)","dholpur_ashkvharcolny_d (rajasthan)"
"Perungudi (Tamil Nadu)","Chennai_RajivNgr_D (Tamil Nadu)","perungudi (tamil nadu)","chennai_rajivngr_d (tamil nadu)"
"Tura_Sracmplx_D (Meghalaya)","Tura_Songgital_D (Meghalaya)","tura_sracmplx_d (meghalaya)","tura_songgital_d (meghalaya)"
"Chhapra_Prbhunth_D (Bihar)","Chhapra_Central_D_3 (Bihar)","chhapra_prbhunth_d (bihar)","chhapra_central_d_3 (bihar)"
"Arwal_Rozapar_D (Bihar)","Arwal_SipahPnchayt_D (Bihar)","arwal_rozapar_d (bihar)","arwal_sipahpnchayt_d (bihar)"
"Mumbai_Kalyan (Maharashtra)","Mumbai_Dombivli_D (Maharashtra)","mumbai_kalyan (maharashtra)","mumbai_dombivli_d (maharashtra)"
"Barpeta_ShivBari_D (Assam)","Barpeta_Bhera_D (Assam)","barpeta_shivbari_d (assam)","barpeta_bhera_d (assam)"
"Salem (Tamil Nadu)","Salem_MaravaneriRd_D (Tamil Nadu)","salem (tamil nadu)","salem_maravanerird_d (tamil nadu)"
"Shirdi_SaiBansi_D (Maharashtra)","Shirdi_Sakori_D (Maharashtra)","shirdi_saibansi_d (maharashtra)","shirdi_sakori_d (maharashtra)"
"Chittaurgarh_DC (Rajasthan)","Chittaurgarh_LovkushNgr_D (Rajasthan)","chittaurgarh_dc (rajasthan)","chittaurgarh_lovkushngr_d (rajasthan)"
"Gooty_StatonRd_D (Andhra Pradesh)","Gooty_ATPRoad_D (Andhra Pradesh)","gooty_statonrd_d (andhra pradesh)","gooty_atproad_d (andhra pradesh)"
"Rangpo_Ranipool_D (Sikkim)","Rangpo_IBM_D (Sikkim)","rangpo_ranipool_d (sikkim)","rangpo_ibm_d (sikkim)"
"Delhi_Mayapuri_DC (Delhi)","Delhi_MyapuriPhase1_D (Delhi)","delhi_mayapuri_dc (delhi)","delhi_myapuriphase1_d (delhi)"
"Bagdogra_Central_D_1 (West Bengal)","Bagdogra_Kadopani_D (West Bengal)","bagdogra_central_d_1 (west bengal)","bagdogra_kadopani_d (west bengal)"
"Kohima_HghsclRD_D (Nagaland)","Kohima_Peraciezie_D (Nagaland)","kohima_hghsclrd_d (nagaland)","kohima_peraciezie_d (nagaland)"
"Kalimpong_PrimtmRd_D (West Bengal)","Kalimpong_RishiRd_D (West Bengal)","kalimpong_primtmrd_d (west bengal)","kalimpong_rishird_d (west bengal)"
"Pune_Suncity_D (Maharashtra)","Pune_WadgaonBK_D (Maharashtra)","pune_suncity_d (maharashtra)","pune_wadgaonbk_d (maharashtra)"
"Rasulabad_Wardno13_D (Uttar Pradesh)","Rasulabad_ShastriNgr_D (Uttar Pradesh)","rasulabad_wardno13_d (uttar pradesh)","rasulabad_shastringr_d (uttar pradesh)"
"Villupuram_DC (Tamil Nadu)","Viluppuram_GenjiRd_D (Tamil Nadu)","villupuram_dc (tamil nadu)","viluppuram_genjird_d (tamil nadu)"
"Kozhikode_Malaprmba_D (Kerala)","Kozhikode_Karuvissery_D (Kerala)","kozhikode_malaprmba_d (kerala)","kozhikode_karuvissery_d (kerala)"
"Vijayawada_Central_D_4 (Andhra Pradesh)","Vijayawada_Patamata_D (Andhra Pradesh)","vijayawada_central_d_4 (andhra pradesh)","vijayawada_patamata_d (andhra pradesh)"
"Faridabad (Haryana)","Faridabad_NIT_D (Haryana)","faridabad (haryana)","faridabad_nit_d (haryana)"
"Jaipur (Rajasthan)","Jaipur_BaisGodam_D (Rajasthan)","jaipur (rajasthan)","jaipur_baisgodam_d (rajasthan)"
"Shillong_Dhnkheti_D (Meghalaya)","Shillong_LabanKench_D (Meghalaya)","shillong_dhnkheti_d (meghalaya)","shillong_labankench_d (meghalaya)"
"Karnaprayag_Umalodge_D (Uttarakhand)","Karnaprayag_UpperMrkt_D (Uttarakhand)","karnaprayag_umalodge_d (uttarakhand)","karnaprayag_uppermrkt_d (uttarakhand)"
"Guskhara_Itachnda_D (West Bengal)","Guskhara_DignagarRd_D (West Bengal)","guskhara_itachnda_d (west bengal)","guskhara_dignagarrd_d (west bengal)"
"Hyd_East (Telangana)","Hyderabad_Kachiguda_D (Telangana)","hyd_east (telangana)","hyderabad_kachiguda_d (telangana)"
"Unjha_DC (Gujarat)","Unjha_SatymComplx_D (Gujarat)","unjha_dc (gujarat)","unjha_satymcomplx_d (gujarat)"
"Nagda_Prakashngr_D (Madhya Pradesh)","Nagda_PrkashColny_D (Madhya Pradesh)","nagda_prakashngr_d (madhya pradesh)","nagda_prkashcolny_d (madhya pradesh)"
"Vrindavan_MathuraRD_D (Uttar Pradesh)","Vrindavan_Chhatikara_D (Uttar Pradesh)","vrindavan_mathurard_d (uttar pradesh)","vrindavan_chhatikara_d (uttar pradesh)"
"Mandla_Mharajpr_D (Madhya Pradesh)","Mandla_Ward23_D (Madhya Pradesh)","mandla_mharajpr_d (madhya pradesh)","mandla_ward23_d (madhya pradesh)"
"Singrauli_Vindhyanagar_D (Madhya Pradesh)","Singrauli_Sringawali_D (Madhya Pradesh)","singrauli_vindhyanagar_d (madhya pradesh)","singrauli_sringawali_d (madhya pradesh)"
"VirudhuNgr_RmrthyRd_D (Tamil Nadu)","Virudhunagar_MGRNagar_D (Tamil Nadu)","virudhungr_rmrthyrd_d (tamil nadu)","virudhunagar_mgrnagar_d (tamil nadu)"
"Mumbai_Fort _Dc (Maharashtra)","Mumbai_KotakStreet_D (Maharashtra)","mumbai_fort _dc (maharashtra)","mumbai_kotakstreet_d (maharashtra)"
"Jaipur_Central_D_11 (Rajasthan)","Jaipur_SawaiGaitor_D (Rajasthan)","jaipur_central_d_11 (rajasthan)","jaipur_sawaigaitor_d (rajasthan)"
"Mumbai_Borivali West _Dc (Maharashtra)","Mumbai_BorivaliGorai3_D (Maharashtra)","mumbai_borivali west _dc (maharashtra)","mumbai_borivaligorai3_d (maharashtra)"
"Delhi_Pitampura_D (Delhi)","Delhi_HarshVihar_D (Delhi)","delhi_pitampura_d (delhi)","delhi_harshvihar_d (delhi)"
"Shamli_KarnalRd_D (Uttar Pradesh)","Shamli_Salikchand_D (Uttar Pradesh)","shamli_karnalrd_d (uttar pradesh)","shamli_salikchand_d (uttar pradesh)"
"Kurnool_DC (Andhra Pradesh)","Kurnool_KrishnaNgr_D (Andhra Pradesh)","kurnool_dc (andhra pradesh)","kurnool_krishnangr_d (andhra pradesh)"
"Kalpetta_Ward19_D (Kerala)","Kalpetta_Madiyur_D (Kerala)","kalpetta_ward19_d (kerala)","kalpetta_madiyur_d (kerala)"
"Saharsa_Gangjala_D (Bihar)","Saharsa_NayaBzar_D (Bihar)","saharsa_gangjala_d (bihar)","saharsa_nayabzar_d (bihar)"
"Dharmapuri_Central_D_2 (Tamil Nadu)","Dharmapuri_RailwayStn_D (Tamil Nadu)","dharmapuri_central_d_2 (tamil nadu)","dharmapuri_railwaystn_d (tamil nadu)"
"Delhi Moti Nagar (Delhi)","Delhi_ESIHospital_D (Delhi)","delhi moti nagar (delhi)","delhi_esihospital_d (delhi)"
"Bharuch_DC (Gujarat)","Bharuch_GIDC_D (Gujarat)","bharuch_dc (gujarat)","bharuch_gidc_d (gujarat)"
"Sitamari_Durma_D (Bihar)","Sitamarhi_ShantiNgr_D (Bihar)","sitamari_durma_d (bihar)","sitamarhi_shantingr_d (bihar)"
"Bagalkot_Sector4_D (Karnataka)","Bagalkot_Navanagar_D (Karnataka)","bagalkot_sector4_d (karnataka)","bagalkot_navanagar_d (karnataka)"
"Muddebihal_ThlikteRD_D (Karnataka)","Muddebihal_HudcoColny_D (Karnataka)","muddebihal_thlikterd_d (karnataka)","muddebihal_hudcocolny_d (karnataka)"
"Rampur_Judgeroad_D (Uttar Pradesh)","Rampur_BPColony_D (Uttar Pradesh)","rampur_judgeroad_d (uttar pradesh)","rampur_bpcolony_d (uttar pradesh)"
"Gonda_KotwaliN_D (Uttar Pradesh)","Gonda_veerpur_d (uttar Pradesh)","gonda_kotwalin_d (uttar pradesh)","gonda_veerpur_d (uttar pradesh)"
"Panaji Goa (Goa)","Goa_Porvorim_D (Goa)","panaji goa (goa)","goa_porvorim_d (goa)"
"Central Goa (Goa)","Goa_Panjim_D (Goa)","central goa (goa)","goa_panjim_d (goa)"
"Kottayam_NitTower_D (Kerala)","Kottayam_Chungam_D (Kerala)","kottayam_nittower_d (kerala)","kottayam_chungam_d (kerala)"
"Parippally_Payalamkunnu_D (Kerala)","Parippally_Chvarcode_D (Kerala)","parippally_payalamkunnu_d (kerala)","parippally_chvarcode_d (kerala)"
"Dhampur_NaginaRD_D (Uttar Pradesh)","Dhampur_IndraNgr_D (Uttar Pradesh)","dhampur_naginard_d (uttar pradesh)","dhampur_indrangr_d (uttar pradesh)"
"Tijara_Ward8_D (Rajasthan)","Tijara_Ward3_D (Rajasthan)","tijara_ward8_d (rajasthan)","tijara_ward3_d (rajasthan)"
"Mahadevpur_Kataram_D (Telangana)","Mahadevpur_Garepalli_D (Telangana)","mahadevpur_kataram_d (telangana)","mahadevpur_garepalli_d (telangana)"
"Kovilpatti_lksmipur_d (tamil Nadu)","Kovilpatti_SenthamilNgr_D (Tamil Nadu)","kovilpatti_lksmipur_d (tamil nadu)","kovilpatti_senthamilngr_d (tamil nadu)"
"Amd_rakhial (gujarat)","Ahmedabad_Rakhiyal_D (Gujarat)","amd_rakhial (gujarat)","ahmedabad_rakhiyal_d (gujarat)"
"Kulithalai_annangr_d (tamil Nadu)","Kulithalai_PeriyarNgr_D (Tamil Nadu)","kulithalai_annangr_d (tamil nadu)","kulithalai_periyarngr_d (tamil nadu)"
"Mumbai East (maharashtra)","Mumbai_Vashi_D (Maharashtra)","mumbai east (maharashtra)","mumbai_vashi_d (maharashtra)"
"Hyd_Gachibowli (Telangana)","Hyderabad_Gachibowli_D (Telangana)","hyd_gachibowli (telangana)","hyderabad_gachibowli_d (telangana)"
"Siwan_StationRD_D (Bihar)","Siwan_Atrsua_D (Bihar)","siwan_stationrd_d (bihar)","siwan_atrsua_d (bihar)"
"Hyderabad_Pnjgutta_DC (Telangana)","Hyderabad_Punjagutta_D (Telangana)","hyderabad_pnjgutta_dc (telangana)","hyderabad_punjagutta_d (telangana)"
"Jalna_BhgyaNgr_D (Maharashtra)","Jalna_BhagyaNgr_D (Maharashtra)","jalna_bhgyangr_d (maharashtra)","jalna_bhagyangr_d (maharashtra)"
"Hyd-Ecil (Telangana)","Hyderabad_ASRaoNgr_D (Telangana)","hyd-ecil (telangana)","hyderabad_asraongr_d (telangana)"
"Siaha_VetyKawn_D (Mizoram)","Siaha_CouncilVaih_D (Mizoram)","siaha_vetykawn_d (mizoram)","siaha_councilvaih_d (mizoram)"
"Haripad_Kumrpurm_D (Kerala)","Haripad_Sivakripa_D (Kerala)","haripad_kumrpurm_d (kerala)","haripad_sivakripa_d (kerala)"
"Nedumangad_Arsprmbu_D (Kerala)","Nedumangad_WorldMarket_D (Kerala)","nedumangad_arsprmbu_d (kerala)","nedumangad_worldmarket_d (kerala)"
"Naharlagun_JmpuCntr_D (Arunachal Pradesh)","Naharlagun_Barapani_D (Arunachal Pradesh)","naharlagun_jmpucntr_d (arunachal pradesh)","naharlagun_barapani_d (arunachal pradesh)"
"Aligarh_Rajvihar_DC (Uttar Pradesh)","Aligarh_BemaNagar_D (Uttar Pradesh)","aligarh_rajvihar_dc (uttar pradesh)","aligarh_bemanagar_d (uttar pradesh)"
"Allahabad_Central_D_5 (Uttar Pradesh)","Allahabad_Bajha_D (Uttar Pradesh)","allahabad_central_d_5 (uttar pradesh)","allahabad_bajha_d (uttar pradesh)"
"Bhadohi_Bypassrd_D (Uttar Pradesh)","Bhadohi_Prgaspur_D (Uttar Pradesh)","bhadohi_bypassrd_d (uttar pradesh)","bhadohi_prgaspur_d (uttar pradesh)"
"Chhibramau_Bhainpura_D (Uttar Pradesh)","Chhibramau_TajpurRd_D (Uttar Pradesh)","chhibramau_bhainpura_d (uttar pradesh)","chhibramau_tajpurrd_d (uttar pradesh)"
"Colonejganj_Nachani_D (Uttar Pradesh)","Colonejganj_ParshpurRd_D (Uttar Pradesh)","colonejganj_nachani_d (uttar pradesh)","colonejganj_parshpurrd_d (uttar pradesh)"
"Phulpur_Shekhpur_D (Uttar Pradesh)","Phulpur_BeerKaji_D (Uttar Pradesh)","phulpur_shekhpur_d (uttar pradesh)","phulpur_beerkaji_d (uttar pradesh)"
"Rudauli_Amniganj_D (Uttar Pradesh)","Rudauli_NayaganjRd_D (Uttar Pradesh)","rudauli_amniganj_d (uttar pradesh)","rudauli_nayaganjrd_d (uttar pradesh)"
"Saharanpur_DurgaExt_D (Uttar Pradesh)","Saharanpur_DelhiRd_D (Uttar Pradesh)","saharanpur_durgaext_d (uttar pradesh)","saharanpur_delhird_d (uttar pradesh)"
"Rajgurunagar_Chakan_D (Maharashtra)","TalegaonD_Talkhed_D (Maharashtra)","rajgurunagar_chakan_d (maharashtra)","talegaond_talkhed_d (maharashtra)"
"Pune_Chinchwad DC (Maharashtra)","Pune_ChinchwadMIDC_D (Maharashtra)","pune_chinchwad dc (maharashtra)","pune_chinchwadmidc_d (maharashtra)"
"Alephata_SamarthNgr_D (Maharashtra)","Alephata_BhrtPetrol_D (Maharashtra)","alephata_samarthngr_d (maharashtra)","alephata_bhrtpetrol_d (maharashtra)"
"Ambegaon_Manchar_D (Maharashtra)","Ambegaon_BailBazar_D (Maharashtra)","ambegaon_manchar_d (maharashtra)","ambegaon_bailbazar_d (maharashtra)"
"Areacode_Puthalam_D (Kerala)","Areekode_Puthlam_D (Kerala)","areacode_puthalam_d (kerala)","areekode_puthlam_d (kerala)"
"Thamarassery_Chungam_D (Kerala)","Thamarassery_Raoth_D (Kerala)","thamarassery_chungam_d (kerala)","thamarassery_raoth_d (kerala)"
"Raxaul_KairiyaT_D (Bihar)","Raxaul_Nonea_D (Bihar)","raxaul_kairiyat_d (bihar)","raxaul_nonea_d (bihar)"
"Benipur_Javahar_D (Bihar)","Benipur_Karhari_D (Bihar)","benipur_javahar_d (bihar)","benipur_karhari_d (bihar)"
"Karnal (Haryana)","Karnal_BudhaKhera_D (Haryana)","karnal (haryana)","karnal_budhakhera_d (haryana)"
"Kashipur_Vaishali_D (Uttarakhand)","Kashipur_Ward4_D (Uttarakhand)","kashipur_vaishali_d (uttarakhand)","kashipur_ward4_d (uttarakhand)"
"Nainital_Sookhtal_D (Uttarakhand)","Nainital_Malital_D (Uttarakhand)","nainital_sookhtal_d (uttarakhand)","nainital_malital_d (uttarakhand)"
"Dhorimana_SanchoreRD_D (Rajasthan)","Dhorimana_Hirken_D (Rajasthan)","dhorimana_sanchorerd_d (rajasthan)","dhorimana_hirken_d (rajasthan)"
"Rath_Mughlpra_D (Uttar Pradesh)","Rath_Saina_D (Uttar Pradesh)","rath_mughlpra_d (uttar pradesh)","rath_saina_d (uttar pradesh)"
"Rajesultanpur_Itahiya_D (Uttar Pradesh)","Rajesultanpur_AmbedkrNgr_D (Uttar Pradesh)","rajesultanpur_itahiya_d (uttar pradesh)","rajesultanpur_ambedkrngr_d (uttar pradesh)"
"Balaghat_Devtola_D (Madhya Pradesh)","Balaghat_Sarekha_D (Madhya Pradesh)","balaghat_devtola_d (madhya pradesh)","balaghat_sarekha_d (madhya pradesh)"
"Bkothakota_Bccol_D (Andhra Pradesh)","BKothakota_RTCStop_D (Andhra Pradesh)","bkothakota_bccol_d (andhra pradesh)","bkothakota_rtcstop_d (andhra pradesh)"
"Choutuppal_Nagaram_D (Telangana)","Choutuppal_SreeNagar_D (Telangana)","choutuppal_nagaram_d (telangana)","choutuppal_sreenagar_d (telangana)"
"Gangtok_TibetRd_DC (Sikkim)","Gangtok_TibetRdMLA_D (Sikkim)","gangtok_tibetrd_dc (sikkim)","gangtok_tibetrdmla_d (sikkim)"
"Manuguru_AskNagar_D (Telangana)","Manuguru_AshokN_D (Telangana)","manuguru_asknagar_d (telangana)","manuguru_ashokn_d (telangana)"
"Mumbai_UdyogBhavan_D (Maharashtra)","Mumbai_Badlapur_D (Maharashtra)","mumbai_udyogbhavan_d (maharashtra)","mumbai_badlapur_d (maharashtra)"
"CCU_SaltLake (West Bengal)","Kolkata_Krishnapur_D (West Bengal)","ccu_saltlake (west bengal)","kolkata_krishnapur_d (west bengal)"
"Mathura_Central_D_3 (Uttar Pradesh)","Mathura_DC (Uttar Pradesh)","mathura_central_d_3 (uttar pradesh)","mathura_dc (uttar pradesh)"
"Delhi_MalviyaNagar (Delhi)","Delhi_MalviyaNagar_NDC (Delhi)","delhi_malviyanagar (delhi)","delhi_malviyanagar_ndc (delhi)"
"AhmedNagar_DC (Maharashtra)","Ahmednagar_Savedi_D (Maharashtra)","ahmednagar_dc (maharashtra)","ahmednagar_savedi_d (maharashtra)"
"Pen_BljiMrkt_D (Maharashtra)","Pen_Chinchpada_D (Maharashtra)","pen_bljimrkt_d (maharashtra)","pen_chinchpada_d (maharashtra)"
"Alibag_AlibgNgr_D (Maharashtra)","Alibag_Shribag_D (Maharashtra)","alibag_alibgngr_d (maharashtra)","alibag_shribag_d (maharashtra)"
"Chitradurga_DC (Karnataka)","Chitradurga_NehruNgr_D (Karnataka)","chitradurga_dc (karnataka)","chitradurga_nehrungr_d (karnataka)"
"Jorethang_Nayabzr_D (Sikkim)","Jorethang_Chisopani_D (Sikkim)","jorethang_nayabzr_d (sikkim)","jorethang_chisopani_d (sikkim)"
"Malegaon_Rawlgaon_D (Maharashtra)","Malegaon_JyotiNgr_D (Maharashtra)","malegaon_rawlgaon_d (maharashtra)","malegaon_jyotingr_d (maharashtra)"
"Dhule_Doprstnd_D (Maharashtra)","Dhule_MIDC_D (Maharashtra)","dhule_doprstnd_d (maharashtra)","dhule_midc_d (maharashtra)"
"Mumbai_Versova_D (Maharashtra)","Mumbai_AndheriWest_D (Maharashtra)","mumbai_versova_d (maharashtra)","mumbai_andheriwest_d (maharashtra)"
"Sonamui_Central_D_1 (West Bengal)","Sonamui_Drgapr_D (West Bengal)","sonamui_central_d_1 (west bengal)","sonamui_drgapr_d (west bengal)"
"Karimnagar_DC (Telangana)","KarimNagar_ByPassRd_D (Telangana)","karimnagar_dc (telangana)","karimnagar_bypassrd_d (telangana)"
"Thrissur_Poothole_D (Kerala)","Thrissur_Mannuthy_D (Kerala)","thrissur_poothole_d (kerala)","thrissur_mannuthy_d (kerala)"
"Bengaluru_Kadugodi_D (Karnataka)","Bangalore_ITPLRd_D (Karnataka)","bengaluru_kadugodi_d (karnataka)","bangalore_itplrd_d (karnataka)"
"Eral_Busstand_D (Tamil Nadu)","Eral_Nazareth_D (Tamil Nadu)","eral_busstand_d (tamil nadu)","eral_nazareth_d (tamil nadu)"
"Sasaram_Central_D_2 (Bihar)","Sasaram_Madaini_D (Bihar)","sasaram_central_d_2 (bihar)","sasaram_madaini_d (bihar)"
