{
  "type": "service_account",
  "project_id": "snop-lm-capacity-dashboard",
  "private_key_id": "0e803c3591c87cb3c3c6c5f0197ac1ec2248dd59",
  "private_key": "-----BEGIN PRIVATE KEY-----\nMIIEvAIBADANBgkqhkiG9w0BAQEFAASCBKYwggSiAgEAAoIBAQDrjPfClXijEWEq\nRq5TTdhAvOcC2PLuKFIFzbOE1tI8tY2e47AwReXRH5scsRN1oDIG/dYpSB7Ig8eK\n5gZurr0bTl/FRAOehYwMCf8a0jw+jsQUTa8AYBLhewHgx8AVrUMpbDhkEW9WcSgn\nPsbhBfvCFkoI8QfXNFKutB2LsBJODYHr7yMFVc58ErFwlFve6yebDv+viA9PkIvW\nLQxXAf023NGmnOeo+p0Uh6IXoBDi+yQ8WVSbUMsbFhZVaykErrxiHx4rj2su/g7k\nvyDSjKqsFc3ROpVHop+vMjFDVYSVs1BgtOBRqLHDl2FYuVK8kIwDdW0h1+2aC3iK\n5s09agAnAgMBAAECggEAKCdrxPv+CK5Zxf8ukHzgtIh/SPj60KaG9P5P8AE+7aJ1\ndfSSgGgp+TBOHOIC0zZv0MlMzNTCiqQMTB1SU2PuUM1XfiVOCKPzb8n0dvoH0xI7\nUsq7XnECRvXVKCBlGkzi+hi8tDJUrIO1uJr3BD0k4b0y+bs8/u6oeaeysbFeLXfE\nSJ97/jhArkfkl+qzpf3V/WssifyDwXpGtVMZdb5zPxVMmyRh5S4Fav5umIlxTHfU\nbD3P76ugQ8MuVf8qL3L78cq3jAQiTWZQPZhTZgW3D8n0ORKOEmkVFHhQhjCTM3Of\nN2vE4bo3Q6KBaRBJZLmMNe5Eble+tlL0CvlbiohHoQKBgQD3LyHpj9roN8DmLZTU\nRwLOEq/8ZL4JQgq8R4XYRLpkP+8b8AZPF43WIzvOhDexHWJ30C7VQfa75wVMcDl0\nGm5nt2LHlDi0+FD9JoY+9EfvsJAiZF62k3gy5YsiL1/BaET6N6ycIV9JkBf1YYvP\nMm/7mQqPWOTV28Y3iMvelmS62wKBgQDz855IFcimgbePUmmt4/MS+SzUy4tKM1St\nj7Yr5QC5MWTHwnsqonmkLlf7AyM43X5BdNKAgbDzz84DhWChm2Ybi+CyGDd+ubuD\nfgx/SEp64Rn4twm36RJUpWpzS0vMEVGtn6keZC+JbjW0egavsgXHVKNF/F2TKKWf\npX+ytfcDpQKBgEIWVejOT2ba0TY5ZZtDyRozoN3ISY7MG3avYLer2HHJLjK3/9fR\nolhoXysd6o3uH0+NV5go5MDkSWRgdNv33SDZxQ07MdYgtfaZADeAtGL/P+oSD8ic\nsPxaptJi/CUHrbmAfSPZQFK4tc8jX2/sOkh4aHxe9f+/nMVoS6mdaB0VAoGAFIwg\neNHc5KloXJoEbLEWeDKkpAfA468PIs9H+MqBFRgj9O9ckGq+9CUzI+FPxiphyAGe\n+VPzI5YNNB631OTR5OATPOztP69FK/4h71aXb2ImXdyM5QCsmpSUMsHU0Itk5crc\n48JsfpbZzym4BnRoKDHozqxC9XInARtfdh39gEECgYAoOTSTKGmd8DDrJ1VbO4zv\nlS15XkDPU5ilT2q261K9UpPLtzWmss5tgZ4qAatAd+2Ekc3PcpduO9DiwWTMOYxf\nEliqwrmRk75QtaAj1/Yh8rdzOrL5OkpghvpE2m1HEIiPSP1DWPMoE1xvs0VRf2M8\npreGIRbpeBTpoSikwqY4XA==\n-----END PRIVATE KEY-----\n",
  "client_email": "dashboardadmin@snop-lm-capacity-dashboard.iam.gserviceaccount.com",
  "client_id": "105391266660720426748",
  "auth_uri": "https://accounts.google.com/o/oauth2/auth",
  "token_uri": "https://oauth2.googleapis.com/token",
  "auth_provider_x509_cert_url": "https://www.googleapis.com/oauth2/v1/certs",
  "client_x509_cert_url": "https://www.googleapis.com/robot/v1/metadata/x509/dashboardadmin%40snop-lm-capacity-dashboard.iam.gserviceaccount.com"
}
